%YAML 1.1
%TAG !u! tag:unity3d.com,2011:
--- !u!1045 &1
EditorBuildSettings:
  m_ObjectHideFlags: 0
  serializedVersion: 2
  m_Scenes:
  - enabled: 0
    path: Assets/_Hack/Scenes/ConnectOpenWorld_Collab.unity
    guid: abf4c377a14614008a274633a84c7efb
  - enabled: 1
    path: Assets/_Hack/Scenes/ConnectOpenWorld 1.unity
    guid: 71a924f5948db4ab8bb5d2271ad5dfc0
  m_configObjects:
    com.unity.xr.arfoundation.simulation_settings: {fileID: 11400000, guid: cde6fcd122059494d8356e13afe94bbf,
      type: 2}
    com.unity.xr.magicleap.magic_leap_settings: {fileID: 11400000, guid: e74d74253eeaaee41a6792c8d86712a8,
      type: 2}
    com.unity.xr.management.loader_settings: {fileID: 11400000, guid: 59ceb475d0dbca0478340e450c5339b6,
      type: 2}
    com.unity.xr.openxr.settings4: {fileID: 11400000, guid: ddd03f61c06e74620ac31c3d47307a7c,
      type: 2}
